{
  "images" : [
    {
      "idiom" : "universal",
      "scale" : "1x",
      "filename" : "NopeButtonPressed@x1.png"
    },
    {
      "idiom" : "universal",
      "scale" : "2x",
      "filename" : "NopeButtonPressed@x2.png"
    },
    {
      "idiom" : "universal",
      "scale" : "3x",
      "filename" : "NopeButtonPressed@x3.png"
    }
  ],
  "info" : {
    "version" : 1,
    "author" : "xcode"
  }
}